{
    "KPlugin": {
        "Authors": [
            {
                "Email": "albertvaka@gmail.com",
                "Name": "Albert Vaca",
                "Name[ar]": "Albert Vaca",
                "Name[ca@valencia]": "Albert Vaca",
                "Name[ca]": "Albert Vaca",
                "Name[cs]": "Albert Vaca",
                "Name[da]": "Albert Vaca",
                "Name[de]": "Albert Vaca",
                "Name[el]": "Albert Vaca",
                "Name[en_GB]": "Albert Vaca",
                "Name[es]": "Albert Vaca",
                "Name[et]": "Albert Vaca",
                "Name[eu]": "Albert Vaca",
                "Name[fi]": "Albert Vaca",
                "Name[fr]": "Albert Vaca",
                "Name[gl]": "Albert Vaca",
                "Name[id]": "Albert Vaca",
                "Name[it]": "Albert Vaca",
                "Name[ko]": "Albert Vaca",
                "Name[nl]": "Albert Vaca",
                "Name[nn]": "Albert Vaca",
                "Name[pl]": "Albert Vaca",
                "Name[pt]": "Albert Vaca",
                "Name[pt_BR]": "Albert Vaca",
                "Name[ru]": "Albert Vaca",
                "Name[sk]": "Albert Vaca",
                "Name[sr@ijekavian]": "Алберт Вака Синтора",
                "Name[sr@ijekavianlatin]": "Albert Vaka Sintora",
                "Name[sr@latin]": "Albert Vaka Sintora",
                "Name[sr]": "Алберт Вака Синтора",
                "Name[sv]": "Albert Vaca",
                "Name[tr]": "Albert Vaca",
                "Name[uk]": "Albert Vaca",
                "Name[x-test]": "xxAlbert Vacaxx",
                "Name[zh_CN]": "Albert Vaca",
                "Name[zh_TW]": "Albert Vaca"
            }
        ],
        "Description": "Share the clipboard between devices",
        "Description[ar]": "شارك الحافظة بين الجهازين",
        "Description[ca@valencia]": "Comparteix el porta-retalls entre dispositius",
        "Description[ca]": "Comparteix el porta-retalls entre dispositius",
        "Description[cs]": "Sdílet obsah schránky mezi zařízeními",
        "Description[da]": "Del udklipsholderen mellem enheder",
        "Description[de]": "Die Zwischenablage mit Geräten teilen",
        "Description[el]": "Διαμοιρασμός του προχείρου μεταξύ συσκευών",
        "Description[en_GB]": "Share the clipboard between devices",
        "Description[es]": "Compartir portapapeles entre dispositivos",
        "Description[et]": "Lõikepuhvri jagamine seadmete vahel",
        "Description[eu]": "Partekatu arbela gailuen artean",
        "Description[fi]": "Jaa leikepöytä laitteiden välillä",
        "Description[fr]": "Partagez le presse-papiers entre périphériques",
        "Description[gl]": "Comparta o portapapeis entre os dispositivos",
        "Description[hu]": "A vágólap megosztása az eszközök között",
        "Description[id]": "Berbagi papan-klip antara perangkat",
        "Description[it]": "Condividi gli appunti tra i dispositivi",
        "Description[ja]": "デバイス間でクリップボードを共有",
        "Description[ko]": "장치간 클립보드 공유",
        "Description[nl]": "Het klembord tussen apparaten delen",
        "Description[nn]": "Del utklippstavla mellom einingar",
        "Description[pl]": "Współdziel schowek pomiędzy urządzeniami",
        "Description[pt]": "Partilhar a área de transferência entre dispositivos",
        "Description[pt_BR]": "Compartilha a área de transferência entre dispositivos",
        "Description[ru]": "Общий буфер обмена между устройствами",
        "Description[sk]": "Zdieľať schránku medzi zariadeniami",
        "Description[sr@ijekavian]": "Дељење клипборда између уређаја",
        "Description[sr@ijekavianlatin]": "Deljenje klipborda između uređaja",
        "Description[sr@latin]": "Deljenje klipborda između uređaja",
        "Description[sr]": "Дељење клипборда између уређаја",
        "Description[sv]": "Dela klippbordet mellan apparater",
        "Description[tr]": "Aygıtlar arasında panoyu paylaştır",
        "Description[uk]": "Спільне використання буфера обміну даними на пристроях",
        "Description[x-test]": "xxShare the clipboard between devicesxx",
        "Description[zh_CN]": "在设备间共享剪贴板",
        "Description[zh_TW]": "在設備之間共享剪貼板",
        "EnabledByDefault": true,
        "Icon": "klipper",
        "Id": "kdeconnect_clipboard",
        "License": "GPL",
        "Name": "Clipboard",
        "Name[ar]": "الحافظة",
        "Name[ca@valencia]": "Porta-retalls",
        "Name[ca]": "Porta-retalls",
        "Name[cs]": "Schránka",
        "Name[da]": "Udklipsholder",
        "Name[de]": "Zwischenablage",
        "Name[el]": "Πρόχειρο",
        "Name[en_GB]": "Clipboard",
        "Name[es]": "Portapapeles",
        "Name[et]": "Lõikepuhver",
        "Name[eu]": "Arbela",
        "Name[fi]": "Leikepöytä",
        "Name[fr]": "Presse-papiers",
        "Name[gl]": "Portapapeis",
        "Name[hu]": "Vágólap",
        "Name[ia]": "Area de transferentia",
        "Name[id]": "Papan-klip",
        "Name[it]": "Appunti",
        "Name[ja]": "クリップボード",
        "Name[ko]": "클립보드",
        "Name[nl]": "Klembord",
        "Name[nn]": "Utklippstavle",
        "Name[pl]": "Schowek",
        "Name[pt]": "Área de Transferência",
        "Name[pt_BR]": "Área de transferência",
        "Name[ru]": "Буфер обмена",
        "Name[sk]": "Schránka",
        "Name[sr@ijekavian]": "Клипборд",
        "Name[sr@ijekavianlatin]": "Klipbord",
        "Name[sr@latin]": "Klipbord",
        "Name[sr]": "Клипборд",
        "Name[sv]": "Klippbord",
        "Name[tr]": "Geçici taşıma panosu",
        "Name[uk]": "Буфер обміну",
        "Name[x-test]": "xxClipboardxx",
        "Name[zh_CN]": "剪切板",
        "Name[zh_TW]": "剪貼簿",
        "ServiceTypes": [
            "KdeConnect/Plugin"
        ],
        "Version": "0.1",
        "Website": "http://albertvaka.wordpress.com"
    },
    "X-KdeConnect-OutgoingPacketType": [
        "kdeconnect.clipboard"
    ],
    "X-KdeConnect-SupportedPacketType": [
        "kdeconnect.clipboard"
    ]
}
